EESchema Schematic File Version 4
EELAYER 30 0
EELAYER END
$Descr A4 11693 8268
encoding utf-8
Sheet 1 1
Title "RS_TIC"
Date "2020-01-01"
Rev "1.2"
Comp "oVo"
Comment1 "1.0: initial design"
Comment2 "1.1: USB correction"
Comment3 "1.2: USB LED correction"
Comment4 ""
$EndDescr
$Comp
L Isolator:LTV-814 U1
U 1 1 5B77BD54
P 2250 3200
F 0 "U1" H 2250 3525 50  0000 C CNN
F 1 "LTV-814" H 2250 3434 50  0000 C CNN
F 2 "Package_DIP:DIP-4_W7.62mm" H 2050 3000 50  0001 L CIN
F 3 "http://optoelectronics.liteon.com/upload/download/DS-70-96-0013/S_110_LTV-814%20824%20844%20(M,%20S,%20S-TA,%20S-TA1,%20S-TP)%20Series.pdf" H 2275 3200 50  0001 L CNN
	1    2250 3200
	1    0    0    -1  
$EndComp
$Comp
L Device:R R1
U 1 1 5B77BE77
P 1750 3300
F 0 "R1" V 1850 3300 50  0000 C CNN
F 1 "1k" V 1650 3300 50  0000 C CNN
F 2 "Resistor_SMD:R_0603_1608Metric_Pad1.05x0.95mm_HandSolder" V 1680 3300 50  0001 C CNN
F 3 "~" H 1750 3300 50  0001 C CNN
	1    1750 3300
	0    -1   -1   0   
$EndComp
$Comp
L Device:C C3
U 1 1 5B77BEFA
P 7450 4550
F 0 "C3" V 7350 4450 50  0000 C CNN
F 1 "0.1µF" V 7350 4700 50  0000 C CNN
F 2 "Capacitor_SMD:C_0603_1608Metric_Pad1.05x0.95mm_HandSolder" H 7488 4400 50  0001 C CNN
F 3 "~" H 7450 4550 50  0001 C CNN
	1    7450 4550
	0    1    1    0   
$EndComp
$Comp
L Device:C C4
U 1 1 5B77BFB2
P 7450 4850
F 0 "C4" V 7350 4750 50  0000 C CNN
F 1 "0.1µF" V 7350 5000 50  0000 C CNN
F 2 "Capacitor_SMD:C_0603_1608Metric_Pad1.05x0.95mm_HandSolder" H 7488 4700 50  0001 C CNN
F 3 "~" H 7450 4850 50  0001 C CNN
	1    7450 4850
	0    1    1    0   
$EndComp
$Comp
L Device:C C2
U 1 1 5B77C01E
P 7300 4200
F 0 "C2" H 7415 4246 50  0000 L CNN
F 1 "0.1µF" H 7415 4155 50  0000 L CNN
F 2 "Capacitor_SMD:C_0603_1608Metric_Pad1.05x0.95mm_HandSolder" H 7338 4050 50  0001 C CNN
F 3 "~" H 7300 4200 50  0001 C CNN
	1    7300 4200
	1    0    0    -1  
$EndComp
$Comp
L Device:C C1
U 1 1 5B77C04E
P 5600 4200
F 0 "C1" H 5300 4250 50  0000 L CNN
F 1 "0.1µF" H 5300 4150 50  0000 L CNN
F 2 "Capacitor_SMD:C_0603_1608Metric_Pad1.05x0.95mm_HandSolder" H 5638 4050 50  0001 C CNN
F 3 "~" H 5600 4200 50  0001 C CNN
	1    5600 4200
	1    0    0    -1  
$EndComp
$Comp
L power:VCC #PWR01
U 1 1 5B77D55D
P 2600 2700
F 0 "#PWR01" H 2600 2550 50  0001 C CNN
F 1 "VCC" H 2617 2873 50  0000 C CNN
F 2 "" H 2600 2700 50  0001 C CNN
F 3 "" H 2600 2700 50  0001 C CNN
	1    2600 2700
	1    0    0    -1  
$EndComp
Wire Wire Line
	2600 2700 2600 2750
Wire Wire Line
	2550 3300 2600 3300
Wire Wire Line
	2600 3300 2600 3350
$Comp
L power:GND #PWR02
U 1 1 5B77D68D
P 2600 3350
F 0 "#PWR02" H 2600 3100 50  0001 C CNN
F 1 "GND" H 2605 3177 50  0000 C CNN
F 2 "" H 2600 3350 50  0001 C CNN
F 3 "" H 2600 3350 50  0001 C CNN
	1    2600 3350
	1    0    0    -1  
$EndComp
Wire Wire Line
	7300 4050 7250 4050
Wire Wire Line
	7300 4350 7250 4350
Wire Wire Line
	7300 4550 7250 4550
Wire Wire Line
	7250 4850 7300 4850
Wire Wire Line
	7600 4550 7750 4550
Wire Wire Line
	7600 4850 7750 4850
Wire Wire Line
	7750 4850 7750 4550
$Comp
L power:VCC #PWR03
U 1 1 5B77ED75
P 6450 3500
F 0 "#PWR03" H 6450 3350 50  0001 C CNN
F 1 "VCC" H 6467 3673 50  0000 C CNN
F 2 "" H 6450 3500 50  0001 C CNN
F 3 "" H 6450 3500 50  0001 C CNN
	1    6450 3500
	1    0    0    -1  
$EndComp
$Comp
L Device:C C5
U 1 1 5B77F17A
P 6750 3650
F 0 "C5" V 6650 3550 50  0000 C CNN
F 1 "0.1µF" V 6650 3800 50  0000 C CNN
F 2 "Capacitor_SMD:C_0603_1608Metric_Pad1.05x0.95mm_HandSolder" H 6788 3500 50  0001 C CNN
F 3 "~" H 6750 3650 50  0001 C CNN
	1    6750 3650
	0    1    1    0   
$EndComp
$Comp
L power:GND #PWR05
U 1 1 5B77F3FA
P 7200 3700
F 0 "#PWR05" H 7200 3450 50  0001 C CNN
F 1 "GND" H 7205 3527 50  0000 C CNN
F 2 "" H 7200 3700 50  0001 C CNN
F 3 "" H 7200 3700 50  0001 C CNN
	1    7200 3700
	1    0    0    -1  
$EndComp
Wire Wire Line
	6900 3650 7200 3650
Wire Wire Line
	7200 3650 7200 3700
$Comp
L power:GND #PWR08
U 1 1 5B78178F
P 9300 4600
F 0 "#PWR08" H 9300 4350 50  0001 C CNN
F 1 "GND" H 9300 4450 50  0000 C CNN
F 2 "" H 9300 4600 50  0001 C CNN
F 3 "" H 9300 4600 50  0001 C CNN
	1    9300 4600
	1    0    0    -1  
$EndComp
$Comp
L power:VCC #PWR07
U 1 1 5B781AC3
P 9300 4450
F 0 "#PWR07" H 9300 4300 50  0001 C CNN
F 1 "VCC" H 9317 4623 50  0000 C CNN
F 2 "" H 9300 4450 50  0001 C CNN
F 3 "" H 9300 4450 50  0001 C CNN
	1    9300 4450
	1    0    0    -1  
$EndComp
$Comp
L power:GND #PWR04
U 1 1 5B7840B7
P 6450 6200
F 0 "#PWR04" H 6450 5950 50  0001 C CNN
F 1 "GND" H 6600 6150 50  0000 C CNN
F 2 "" H 6450 6200 50  0001 C CNN
F 3 "" H 6450 6200 50  0001 C CNN
	1    6450 6200
	1    0    0    -1  
$EndComp
Wire Wire Line
	6450 6200 6450 6150
Text Label 8350 5050 2    50   ~ 0
TX_RS232
Wire Notes Line
	2250 2800 2250 2000
Wire Notes Line
	2250 3400 2250 4300
Text Label 1300 3200 0    50   ~ 0
TIC_I1
Text Label 1300 3100 0    50   ~ 0
TIC_I2
Wire Wire Line
	6450 3500 6450 3650
Wire Wire Line
	6600 3650 6450 3650
Connection ~ 6450 3650
Wire Wire Line
	6450 3650 6450 3750
Wire Wire Line
	2550 3100 2600 3100
Wire Wire Line
	2600 3050 2600 3100
Wire Wire Line
	3000 3200 2950 3200
Wire Wire Line
	2950 3200 2950 3100
Wire Wire Line
	2950 3100 3000 3100
Wire Wire Line
	2600 3100 2950 3100
Connection ~ 2600 3100
Connection ~ 2950 3100
NoConn ~ 5650 5250
NoConn ~ 5650 5450
NoConn ~ 5650 5650
Wire Wire Line
	1900 3300 1950 3300
Wire Wire Line
	1600 3300 1550 3300
Wire Wire Line
	1550 3300 1550 3200
NoConn ~ 7250 5250
NoConn ~ 7250 5450
NoConn ~ 7250 5650
Wire Wire Line
	5650 4350 5600 4350
Wire Wire Line
	5600 4050 5650 4050
$Comp
L power:GND #PWR06
U 1 1 5B7938FF
P 7750 4900
F 0 "#PWR06" H 7750 4650 50  0001 C CNN
F 1 "GND" H 7900 4850 50  0000 C CNN
F 2 "" H 7750 4900 50  0001 C CNN
F 3 "" H 7750 4900 50  0001 C CNN
	1    7750 4900
	1    0    0    -1  
$EndComp
Wire Wire Line
	7750 4900 7750 4850
Connection ~ 7750 4850
$Comp
L power:GND #PWR09
U 1 1 5B796D3B
P 9300 5400
F 0 "#PWR09" H 9300 5150 50  0001 C CNN
F 1 "GND" H 9300 5250 50  0000 C CNN
F 2 "" H 9300 5400 50  0001 C CNN
F 3 "" H 9300 5400 50  0001 C CNN
	1    9300 5400
	1    0    0    -1  
$EndComp
Wire Wire Line
	9300 5400 9300 5350
Wire Wire Line
	9300 4550 9300 4600
$Comp
L power:PWR_FLAG #FLG0101
U 1 1 5B79B5A1
P 10450 1050
F 0 "#FLG0101" H 10450 1125 50  0001 C CNN
F 1 "PWR_FLAG" H 10450 1223 50  0000 C CNN
F 2 "" H 10450 1050 50  0001 C CNN
F 3 "~" H 10450 1050 50  0001 C CNN
	1    10450 1050
	1    0    0    1   
$EndComp
Wire Wire Line
	1150 3200 1550 3200
Wire Wire Line
	1150 3100 1950 3100
Wire Wire Line
	9300 4550 9400 4550
Wire Wire Line
	9300 4450 9400 4450
Wire Wire Line
	9300 5350 9400 5350
$Comp
L Connector:Conn_01x02_Female J2
U 1 1 5B7BA37C
P 9600 4550
F 0 "J2" H 9627 4526 50  0000 L CNN
F 1 "Conn_01x02_Female" H 9627 4435 50  0000 L CNN
F 2 "PhoenixContact:PhoenixContact_SPT-SMD_1,5_2-H-3,5_R24" H 9600 4550 50  0001 C CNN
F 3 "~" H 9600 4550 50  0001 C CNN
	1    9600 4550
	1    0    0    1   
$EndComp
$Comp
L Connector:Conn_01x02_Female J3
U 1 1 5B7BA496
P 9600 5250
F 0 "J3" H 9627 5226 50  0000 L CNN
F 1 "Conn_01x02_Female" H 9627 5135 50  0000 L CNN
F 2 "PhoenixContact:PhoenixContact_SPT-SMD_1,5_2-H-3,5_R24" H 9600 5250 50  0001 C CNN
F 3 "~" H 9600 5250 50  0001 C CNN
	1    9600 5250
	1    0    0    -1  
$EndComp
$Comp
L Connector:Conn_01x02_Female J1
U 1 1 5B7BB19C
P 950 3100
F 0 "J1" H 844 3285 50  0000 C CNN
F 1 "Conn_01x02_Female" H 844 3194 50  0000 C CNN
F 2 "PhoenixContact:PhoenixContact_SPT-SMD_1,5_2-H-3,5_R24" H 950 3100 50  0001 C CNN
F 3 "~" H 950 3100 50  0001 C CNN
	1    950  3100
	-1   0    0    -1  
$EndComp
$Comp
L Device:Ferrite_Bead_Small L1
U 1 1 5B7CA325
P 10000 1650
F 0 "L1" H 10100 1696 50  0000 L CNN
F 1 "Ferrite_Bead_Small" H 10100 1605 50  0000 L CNN
F 2 "Inductor_SMD:L_0805_2012Metric_Pad1.33x1.40mm_HandSolder" V 9930 1650 50  0001 C CNN
F 3 "~" H 10000 1650 50  0001 C CNN
	1    10000 1650
	-1   0    0    -1  
$EndComp
$Comp
L Device:R R5
U 1 1 5B7CA3F3
P 9200 2000
F 0 "R5" V 9100 1950 50  0000 C CNN
F 1 "27" V 9200 2000 50  0000 C CNN
F 2 "Resistor_SMD:R_0603_1608Metric_Pad1.05x0.95mm_HandSolder" V 9130 2000 50  0001 C CNN
F 3 "~" H 9200 2000 50  0001 C CNN
	1    9200 2000
	0    1    1    0   
$EndComp
Wire Wire Line
	10200 1800 10000 1800
Wire Wire Line
	10000 1800 10000 1750
Wire Wire Line
	10000 1500 10000 1550
$Comp
L Device:R R6
U 1 1 5B7CBD9E
P 9200 2100
F 0 "R6" V 9300 2050 50  0000 C CNN
F 1 "27" V 9200 2100 50  0000 C CNN
F 2 "Resistor_SMD:R_0603_1608Metric_Pad1.05x0.95mm_HandSolder" V 9130 2100 50  0001 C CNN
F 3 "~" H 9200 2100 50  0001 C CNN
	1    9200 2100
	0    1    1    0   
$EndComp
Wire Wire Line
	9350 2100 9600 2100
Wire Wire Line
	7000 2700 7000 2750
Wire Wire Line
	7000 2750 6900 2750
Wire Wire Line
	6800 2750 6800 2700
$Comp
L power:GND #PWR017
U 1 1 5B7D9C12
P 6900 2800
F 0 "#PWR017" H 6900 2550 50  0001 C CNN
F 1 "GND" H 6905 2627 50  0000 C CNN
F 2 "" H 6900 2800 50  0001 C CNN
F 3 "" H 6900 2800 50  0001 C CNN
	1    6900 2800
	-1   0    0    -1  
$EndComp
Wire Wire Line
	6900 2800 6900 2750
Connection ~ 6900 2750
Wire Wire Line
	6900 2750 6800 2750
Wire Wire Line
	7000 1300 7000 1250
Wire Wire Line
	7850 1900 7600 1900
$Comp
L power:GND #PWR013
U 1 1 5B7E2532
P 8250 1650
F 0 "#PWR013" H 8250 1400 50  0001 C CNN
F 1 "GND" H 8255 1477 50  0000 C CNN
F 2 "" H 8250 1650 50  0001 C CNN
F 3 "" H 8250 1650 50  0001 C CNN
	1    8250 1650
	-1   0    0    -1  
$EndComp
Wire Wire Line
	6800 1250 6800 1300
Wire Wire Line
	8250 1250 8250 1350
$Comp
L Device:C C6
U 1 1 5B7CA388
P 8250 1500
F 0 "C6" H 8365 1546 50  0000 L CNN
F 1 "0.1µF" H 8365 1455 50  0000 L CNN
F 2 "Capacitor_SMD:C_0603_1608Metric_Pad1.05x0.95mm_HandSolder" H 8288 1350 50  0001 C CNN
F 3 "~" H 8250 1500 50  0001 C CNN
	1    8250 1500
	-1   0    0    -1  
$EndComp
$Comp
L Device:C C7
U 1 1 5B7F4C62
P 8250 2400
F 0 "C7" H 8365 2446 50  0000 L CNN
F 1 "10nF" H 8365 2355 50  0000 L CNN
F 2 "Capacitor_SMD:C_0603_1608Metric_Pad1.05x0.95mm_HandSolder" H 8288 2250 50  0001 C CNN
F 3 "~" H 8250 2400 50  0001 C CNN
	1    8250 2400
	-1   0    0    -1  
$EndComp
$Comp
L Device:R R3
U 1 1 5B7F4D05
P 8750 1650
F 0 "R3" H 8820 1696 50  0000 L CNN
F 1 "10k" H 8820 1605 50  0000 L CNN
F 2 "Resistor_SMD:R_0603_1608Metric_Pad1.05x0.95mm_HandSolder" V 8680 1650 50  0001 C CNN
F 3 "~" H 8750 1650 50  0001 C CNN
	1    8750 1650
	-1   0    0    -1  
$EndComp
$Comp
L Device:R R4
U 1 1 5B7F4D8D
P 8750 2400
F 0 "R4" H 8820 2446 50  0000 L CNN
F 1 "15k" H 8820 2355 50  0000 L CNN
F 2 "Resistor_SMD:R_0603_1608Metric_Pad1.05x0.95mm_HandSolder" V 8680 2400 50  0001 C CNN
F 3 "~" H 8750 2400 50  0001 C CNN
	1    8750 2400
	-1   0    0    -1  
$EndComp
Wire Wire Line
	8250 2200 8250 2250
Wire Wire Line
	8750 2550 8750 2600
Wire Wire Line
	8250 2550 8250 2600
$Comp
L power:GND #PWR011
U 1 1 5B7FBEFF
P 8750 2600
F 0 "#PWR011" H 8750 2350 50  0001 C CNN
F 1 "GND" H 8755 2427 50  0000 C CNN
F 2 "" H 8750 2600 50  0001 C CNN
F 3 "" H 8750 2600 50  0001 C CNN
	1    8750 2600
	-1   0    0    -1  
$EndComp
$Comp
L power:GND #PWR014
U 1 1 5B7FBF3D
P 8250 2600
F 0 "#PWR014" H 8250 2350 50  0001 C CNN
F 1 "GND" H 8255 2427 50  0000 C CNN
F 2 "" H 8250 2600 50  0001 C CNN
F 3 "" H 8250 2600 50  0001 C CNN
	1    8250 2600
	-1   0    0    -1  
$EndComp
Wire Wire Line
	8750 1250 8750 1500
Wire Wire Line
	6200 1700 5850 1700
Wire Wire Line
	8750 1800 8750 2200
Connection ~ 8750 2200
Wire Wire Line
	8750 2200 8750 2250
Wire Wire Line
	8250 2200 8750 2200
Wire Wire Line
	5650 5050 5500 5050
$Comp
L power:GND #PWR020
U 1 1 5B81E111
P 10000 2600
F 0 "#PWR020" H 10000 2350 50  0001 C CNN
F 1 "GND" H 10005 2427 50  0000 C CNN
F 2 "" H 10000 2600 50  0001 C CNN
F 3 "" H 10000 2600 50  0001 C CNN
	1    10000 2600
	1    0    0    -1  
$EndComp
$Comp
L Device:C C10
U 1 1 5B825C1D
P 9400 2400
F 0 "C10" H 9300 2500 50  0000 L CNN
F 1 "47pF" H 9200 2300 50  0000 L CNN
F 2 "Capacitor_SMD:C_0603_1608Metric_Pad1.05x0.95mm_HandSolder" H 9438 2250 50  0001 C CNN
F 3 "~" H 9400 2400 50  0001 C CNN
	1    9400 2400
	1    0    0    -1  
$EndComp
$Comp
L Device:C C11
U 1 1 5B825C9D
P 9600 2400
F 0 "C11" H 9600 2500 50  0000 L CNN
F 1 "47pF" H 9600 2300 50  0000 L CNN
F 2 "Capacitor_SMD:C_0603_1608Metric_Pad1.05x0.95mm_HandSolder" H 9638 2250 50  0001 C CNN
F 3 "~" H 9600 2400 50  0001 C CNN
	1    9600 2400
	1    0    0    -1  
$EndComp
Wire Wire Line
	9400 2250 9400 2000
Wire Wire Line
	9400 2000 10200 2000
Wire Wire Line
	9600 2250 9600 2100
Connection ~ 9600 2100
Wire Wire Line
	9600 2100 10200 2100
Wire Wire Line
	9400 2550 9400 2600
Wire Wire Line
	9400 2600 9600 2600
Wire Wire Line
	9600 2550 9600 2600
Connection ~ 9600 2600
Wire Wire Line
	10600 2600 10600 2400
Wire Wire Line
	10000 2600 10500 2600
Wire Wire Line
	10500 2400 10500 2600
Connection ~ 10500 2600
Wire Wire Line
	10500 2600 10600 2600
Connection ~ 10000 2600
Wire Wire Line
	9600 2600 10000 2600
$Comp
L Device:C C12
U 1 1 5B83CC28
P 10000 2400
F 0 "C12" H 10000 2500 50  0000 L CNN
F 1 "10nF" H 10000 2300 50  0000 L CNN
F 2 "Capacitor_SMD:C_0603_1608Metric_Pad1.05x0.95mm_HandSolder" H 10038 2250 50  0001 C CNN
F 3 "~" H 10000 2400 50  0001 C CNN
	1    10000 2400
	1    0    0    -1  
$EndComp
Wire Wire Line
	10000 2250 10000 1800
Connection ~ 10000 1800
Wire Wire Line
	10000 2550 10000 2600
$Comp
L Device:C C8
U 1 1 5B84459C
P 7300 1050
F 0 "C8" V 7250 900 50  0000 C CNN
F 1 "0.1µF" V 7250 1200 50  0000 C CNN
F 2 "Capacitor_SMD:C_0603_1608Metric_Pad1.05x0.95mm_HandSolder" H 7338 900 50  0001 C CNN
F 3 "~" H 7300 1050 50  0001 C CNN
	1    7300 1050
	0    -1   1    0   
$EndComp
$Comp
L Device:C C9
U 1 1 5B844629
P 7300 1250
F 0 "C9" V 7250 1100 50  0000 C CNN
F 1 "4.7µF" V 7250 1400 50  0000 C CNN
F 2 "Capacitor_SMD:C_0603_1608Metric_Pad1.05x0.95mm_HandSolder" H 7338 1100 50  0001 C CNN
F 3 "~" H 7300 1250 50  0001 C CNN
	1    7300 1250
	0    -1   1    0   
$EndComp
Wire Wire Line
	7450 1050 7550 1050
Wire Wire Line
	7550 1050 7550 1150
Wire Wire Line
	7550 1250 7450 1250
Wire Wire Line
	7550 1150 7650 1150
Wire Wire Line
	7650 1150 7650 1200
Connection ~ 7550 1150
Wire Wire Line
	7550 1150 7550 1250
$Comp
L power:GND #PWR015
U 1 1 5B848850
P 7650 1200
F 0 "#PWR015" H 7650 950 50  0001 C CNN
F 1 "GND" H 7655 1027 50  0000 C CNN
F 2 "" H 7650 1200 50  0001 C CNN
F 3 "" H 7650 1200 50  0001 C CNN
	1    7650 1200
	-1   0    0    -1  
$EndComp
Wire Wire Line
	7150 1050 7000 1050
Connection ~ 7000 1050
Wire Wire Line
	7000 1050 7000 950 
Wire Wire Line
	7150 1250 7000 1250
Connection ~ 7000 1250
Wire Wire Line
	7000 1250 7000 1050
Wire Notes Line
	11000 600  11000 3100
Wire Notes Line
	11000 3200 11000 6450
Wire Notes Line
	4500 6450 4500 3200
Text Notes 10600 700  2    50   ~ 0
USB Serial option
Text Notes 10950 3300 2    50   ~ 0
RS-232 / 5V TTL option
NoConn ~ 6200 2300
NoConn ~ 6200 2400
NoConn ~ 10200 2200
$Comp
L Connector:USB_B_Micro J4
U 1 1 5B894289
P 10500 2000
F 0 "J4" H 10700 2450 50  0000 R CNN
F 1 "USB_B_Micro" H 10700 2350 50  0000 R CNN
F 2 "Connector_USB:USB_Micro-B_Molex_47346-0001" H 10650 1950 50  0001 C CNN
F 3 "~" H 10650 1950 50  0001 C CNN
	1    10500 2000
	-1   0    0    -1  
$EndComp
Text Label 7750 2000 2    50   ~ 0
DP
Text Label 7750 1900 2    50   ~ 0
DM
Text Label 9450 2000 0    50   ~ 0
D+
Text Label 9450 2100 0    50   ~ 0
D-
Wire Notes Line
	4300 1450 4300 4700
Wire Notes Line
	4300 4700 650  4700
Wire Notes Line
	650  4700 650  1450
Wire Notes Line
	650  1450 4300 1450
Text Notes 4200 1550 2    50   ~ 0
TIC signal demodulation (not an option!)
Connection ~ 8250 2200
Wire Wire Line
	7600 2200 8250 2200
Connection ~ 8250 1350
Wire Wire Line
	7850 1350 8250 1350
Wire Wire Line
	9350 2000 9400 2000
Connection ~ 9400 2000
Wire Wire Line
	7850 1900 7850 2100
Wire Wire Line
	7850 2100 9050 2100
Wire Wire Line
	7600 1600 7850 1600
Wire Wire Line
	7850 1600 7850 1350
Wire Wire Line
	7250 5050 8450 5050
$Comp
L Jumper:SolderJumper_3_Open JP1
U 1 1 5B812396
P 8450 5250
F 0 "JP1" V 8496 5318 50  0000 L CNN
F 1 "SolderJumper_3_Open" V 8405 5318 50  0000 L CNN
F 2 "Jumper:SolderJumper-3_P1.3mm_Open_RoundedPad1.0x1.5mm_NumberLabels" H 8450 5250 50  0001 C CNN
F 3 "~" H 8450 5250 50  0001 C CNN
	1    8450 5250
	0    -1   1    0   
$EndComp
Wire Wire Line
	8600 5250 9400 5250
Text Label 8600 5250 0    50   ~ 0
TX_RS232_or_5V_TTL
Wire Wire Line
	8450 6400 5500 6400
Wire Wire Line
	5500 6400 5500 5050
Wire Wire Line
	8450 5450 8450 6400
Connection ~ 5500 5050
Wire Wire Line
	5500 5050 5300 5050
$Comp
L 74xGxx:74LVC1G08 U2
U 1 1 5B7DDF20
P 3300 3150
F 0 "U2" H 3275 3417 50  0000 C CNN
F 1 "74LVC1G08" H 3275 3326 50  0000 C CNN
F 2 "Package_TO_SOT_SMD:SOT-23-5_HandSoldering" H 3300 3150 50  0001 C CNN
F 3 "http://www.ti.com/lit/sg/scyt129e/scyt129e.pdf" H 3300 3150 50  0001 C CNN
	1    3300 3150
	1    0    0    -1  
$EndComp
Text Label 5950 1600 0    50   ~ 0
RX
Text Label 5950 1800 0    50   ~ 0
~RTS
Text Label 5950 1900 0    50   ~ 0
~CTS
$Comp
L Device:R R8
U 1 1 5B870601
P 5650 1300
F 0 "R8" H 5650 1450 50  0000 L CNN
F 1 "10k" V 5650 1300 50  0000 C CNN
F 2 "Resistor_SMD:R_0603_1608Metric_Pad1.05x0.95mm_HandSolder" V 5580 1300 50  0001 C CNN
F 3 "~" H 5650 1300 50  0001 C CNN
	1    5650 1300
	1    0    0    -1  
$EndComp
Wire Wire Line
	5250 1900 5250 1450
$Comp
L Device:R R10
U 1 1 5B889777
P 5250 1300
F 0 "R10" H 5250 1450 50  0000 L CNN
F 1 "10k" V 5250 1300 50  0000 C CNN
F 2 "Resistor_SMD:R_0603_1608Metric_Pad1.05x0.95mm_HandSolder" V 5180 1300 50  0001 C CNN
F 3 "~" H 5250 1300 50  0001 C CNN
	1    5250 1300
	1    0    0    -1  
$EndComp
$Comp
L Device:R R7
U 1 1 5B88CADB
P 5850 1300
F 0 "R7" H 5850 1450 50  0000 L CNN
F 1 "10k" V 5850 1300 50  0000 C CNN
F 2 "Resistor_SMD:R_0603_1608Metric_Pad1.05x0.95mm_HandSolder" V 5780 1300 50  0001 C CNN
F 3 "~" H 5850 1300 50  0001 C CNN
	1    5850 1300
	1    0    0    -1  
$EndComp
Wire Wire Line
	5850 1450 5850 1700
Wire Wire Line
	5450 1150 5450 1050
$Comp
L Interface_UART:MAX232 U3
U 1 1 5B86BEC5
P 6450 4950
F 0 "U3" H 5900 6000 50  0000 C CNN
F 1 "ST232" H 6850 6000 50  0000 C CNN
F 2 "Package_SO:SOIC-16_3.9x9.9mm_P1.27mm" H 6500 3900 50  0001 L CNN
F 3 "http://www.ti.com/lit/ds/symlink/max232.pdf" H 6450 5050 50  0001 C CNN
	1    6450 4950
	1    0    0    -1  
$EndComp
$Comp
L power:VBUS #PWR0101
U 1 1 5BB56766
P 10000 1500
F 0 "#PWR0101" H 10000 1350 50  0001 C CNN
F 1 "VBUS" H 10015 1673 50  0000 C CNN
F 2 "" H 10000 1500 50  0001 C CNN
F 3 "" H 10000 1500 50  0001 C CNN
	1    10000 1500
	1    0    0    -1  
$EndComp
$Comp
L power:VBUS #PWR0103
U 1 1 5BB567E9
P 8750 1250
F 0 "#PWR0103" H 8750 1100 50  0001 C CNN
F 1 "VBUS" H 8765 1423 50  0000 C CNN
F 2 "" H 8750 1250 50  0001 C CNN
F 3 "" H 8750 1250 50  0001 C CNN
	1    8750 1250
	1    0    0    -1  
$EndComp
$Comp
L power:VBUS #PWR0104
U 1 1 5BB56C6C
P 7000 950
F 0 "#PWR0104" H 7000 800 50  0001 C CNN
F 1 "VBUS" H 7015 1123 50  0000 C CNN
F 2 "" H 7000 950 50  0001 C CNN
F 3 "" H 7000 950 50  0001 C CNN
	1    7000 950 
	1    0    0    -1  
$EndComp
$Comp
L power:VCC #PWR0105
U 1 1 5BB56D44
P 8250 1250
F 0 "#PWR0105" H 8250 1100 50  0001 C CNN
F 1 "VCC" H 8267 1423 50  0000 C CNN
F 2 "" H 8250 1250 50  0001 C CNN
F 3 "" H 8250 1250 50  0001 C CNN
	1    8250 1250
	1    0    0    -1  
$EndComp
$Comp
L power:VCC #PWR0106
U 1 1 5BB56DC7
P 6800 1250
F 0 "#PWR0106" H 6800 1100 50  0001 C CNN
F 1 "VCC" H 6817 1423 50  0000 C CNN
F 2 "" H 6800 1250 50  0001 C CNN
F 3 "" H 6800 1250 50  0001 C CNN
	1    6800 1250
	1    0    0    -1  
$EndComp
$Comp
L power:VCC #PWR0108
U 1 1 5BB56ECD
P 5450 950
F 0 "#PWR0108" H 5450 800 50  0001 C CNN
F 1 "VCC" H 5467 1123 50  0000 C CNN
F 2 "" H 5450 950 50  0001 C CNN
F 3 "" H 5450 950 50  0001 C CNN
	1    5450 950 
	1    0    0    -1  
$EndComp
$Comp
L power:VBUS #PWR0102
U 1 1 5BB56FA0
P 10450 1050
F 0 "#PWR0102" H 10450 900 50  0001 C CNN
F 1 "VBUS" H 10465 1223 50  0000 C CNN
F 2 "" H 10450 1050 50  0001 C CNN
F 3 "" H 10450 1050 50  0001 C CNN
	1    10450 1050
	1    0    0    -1  
$EndComp
$Comp
L Device:R R11
U 1 1 5DC40E47
P 3700 2400
F 0 "R11" H 3770 2446 50  0000 L CNN
F 1 "820" V 3700 2400 50  0000 C CNN
F 2 "Resistor_SMD:R_0603_1608Metric_Pad1.05x0.95mm_HandSolder" V 3630 2400 50  0001 C CNN
F 3 "~" H 3700 2400 50  0001 C CNN
	1    3700 2400
	1    0    0    -1  
$EndComp
$Comp
L power:VCC #PWR010
U 1 1 5DC40E51
P 3700 2200
F 0 "#PWR010" H 3700 2050 50  0001 C CNN
F 1 "VCC" H 3717 2373 50  0000 C CNN
F 2 "" H 3700 2200 50  0001 C CNN
F 3 "" H 3700 2200 50  0001 C CNN
	1    3700 2200
	1    0    0    -1  
$EndComp
Wire Wire Line
	3700 2200 3700 2250
$Comp
L Device:LED_ALT D1
U 1 1 5DC498FD
P 3700 2750
F 0 "D1" V 3700 2700 50  0000 R CNN
F 1 "Red" V 3700 3000 50  0000 R CNN
F 2 "LED_SMD:LED_0603_1608Metric_Pad0.88x0.95mm_HandSolder" H 3700 2750 50  0001 C CNN
F 3 "Vf=1.8V, If=2mA" H 3700 2750 50  0001 C CNN
	1    3700 2750
	0    -1   -1   0   
$EndComp
Wire Wire Line
	3700 2550 3700 2600
Wire Wire Line
	3700 2900 3700 3150
Wire Wire Line
	7600 2000 9050 2000
Text GLabel 3950 3150 2    50   Output ~ 0
TX_TTL
Wire Notes Line
	4500 600  11000 600 
Wire Notes Line
	4500 3100 11000 3100
Wire Notes Line
	4500 3200 11000 3200
Wire Notes Line
	4500 6450 11000 6450
$Comp
L Device:R R9
U 1 1 5B889725
P 5450 1300
F 0 "R9" H 5450 1450 50  0000 L CNN
F 1 "10k" V 5450 1300 50  0000 C CNN
F 2 "Resistor_SMD:R_0603_1608Metric_Pad1.05x0.95mm_HandSolder" V 5380 1300 50  0001 C CNN
F 3 "~" H 5450 1300 50  0001 C CNN
	1    5450 1300
	1    0    0    -1  
$EndComp
Wire Notes Line
	4500 3100 4500 600 
Wire Wire Line
	5250 1900 6200 1900
Wire Wire Line
	5450 1450 5450 1800
Wire Wire Line
	5450 1800 6200 1800
Wire Wire Line
	5650 1600 5650 1450
Wire Wire Line
	5650 1600 6200 1600
Wire Wire Line
	4850 1700 5850 1700
Text GLabel 4850 1700 0    50   Input ~ 0
TX_TTL
Wire Wire Line
	5250 1150 5250 1050
Wire Wire Line
	5650 1150 5650 1050
Connection ~ 5650 1050
Wire Wire Line
	5650 1050 5850 1050
Wire Wire Line
	5850 1050 5850 1150
$Comp
L Device:LED_ALT D2
U 1 1 5DC5EACF
P 5050 1300
F 0 "D2" V 5200 1300 50  0000 R CNN
F 1 "Green" V 5050 1600 50  0000 R CNN
F 2 "LED_SMD:LED_0603_1608Metric_Pad0.88x0.95mm_HandSolder" H 5050 1300 50  0001 C CNN
F 3 "Vf=2.7V, If=2mA" H 5050 1300 50  0001 C CNN
	1    5050 1300
	0    -1   -1   0   
$EndComp
Wire Wire Line
	5050 1050 5250 1050
Wire Wire Line
	5050 1050 5050 1150
Connection ~ 5250 1050
Wire Wire Line
	5050 2200 5050 2100
Connection ~ 5850 1700
Wire Wire Line
	5050 1450 5050 1800
Wire Wire Line
	5250 1050 5450 1050
Connection ~ 5450 1050
Wire Wire Line
	5450 1050 5450 950 
Wire Wire Line
	5450 1050 5650 1050
Connection ~ 3700 3150
Wire Wire Line
	3700 3150 3950 3150
Wire Wire Line
	3550 3150 3700 3150
$Comp
L Device:R R2
U 1 1 5B77BEB0
P 2600 2900
F 0 "R2" H 2670 2946 50  0000 L CNN
F 1 "3.3k" V 2600 2900 50  0000 C CNN
F 2 "Resistor_SMD:R_0603_1608Metric_Pad1.05x0.95mm_HandSolder" V 2530 2900 50  0001 C CNN
F 3 "~" H 2600 2900 50  0001 C CNN
	1    2600 2900
	1    0    0    -1  
$EndComp
Text GLabel 5300 5050 0    50   Input ~ 0
TX_TTL
Text Label 5650 2200 2    50   ~ 0
~RX_LED
Text Label 7950 2200 2    50   ~ 0
~Reset_FT
$Comp
L Device:R R12
U 1 1 5DC5EAC4
P 5050 1950
F 0 "R12" H 5050 2100 50  0000 L CNN
F 1 "390" V 5050 1950 50  0000 C CNN
F 2 "Resistor_SMD:R_0603_1608Metric_Pad1.05x0.95mm_HandSolder" V 4980 1950 50  0001 C CNN
F 3 "~" H 5050 1950 50  0001 C CNN
	1    5050 1950
	1    0    0    -1  
$EndComp
NoConn ~ 6200 2200
Wire Wire Line
	6200 2100 5800 2100
Wire Wire Line
	5800 2100 5800 2200
Wire Wire Line
	5800 2200 5050 2200
$Comp
L Interface_USB:FT230XS U4
U 1 1 5E0F3BC9
P 6900 2000
F 0 "U4" H 6400 2600 50  0000 C CNN
F 1 "FT230XS" H 7300 2600 50  0000 C CNN
F 2 "Package_SO:SSOP-16_3.9x4.9mm_P0.635mm" H 7350 1350 50  0001 C CNN
F 3 "http://www.ftdichip.com/Products/ICs/FT230X.html" H 6900 2000 50  0001 C CNN
	1    6900 2000
	-1   0    0    -1  
$EndComp
$EndSCHEMATC
