%TF.GenerationSoftware,KiCad,Pcbnew,(5.1.4)-1*%
%TF.CreationDate,2020-02-15T22:15:40+01:00*%
%TF.ProjectId,RS_TIC,52535f54-4943-42e6-9b69-6361645f7063,1.2*%
%TF.SameCoordinates,PX7bfa480PY59a5380*%
%TF.FileFunction,Paste,Top*%
%TF.FilePolarity,Positive*%
%FSLAX46Y46*%
G04 Gerber Fmt 4.6, Leading zero omitted, Abs format (unit mm)*
G04 Created by KiCad (PCBNEW (5.1.4)-1) date 2020-02-15 22:15:40*
%MOMM*%
%LPD*%
G04 APERTURE LIST*
%ADD10C,0.010000*%
%ADD11C,0.100000*%
%ADD12C,0.875000*%
%ADD13R,4.000000X1.600000*%
%ADD14C,0.950000*%
%ADD15R,1.500000X0.600000*%
%ADD16C,1.325000*%
%ADD17R,1.900000X1.175000*%
%ADD18R,1.900000X2.375000*%
%ADD19R,2.100000X1.475000*%
%ADD20R,1.380000X0.450000*%
G04 APERTURE END LIST*
D10*
X48000000Y0D02*
X0Y0D01*
X0Y0D02*
X0Y-26000000D01*
X48000000Y-26000000D02*
X48000000Y0D01*
X0Y-26000000D02*
X48000000Y-26000000D01*
D11*
G36*
X47277691Y-20873553D02*
G01*
X47298926Y-20876703D01*
X47319750Y-20881919D01*
X47339962Y-20889151D01*
X47359368Y-20898330D01*
X47377781Y-20909366D01*
X47395024Y-20922154D01*
X47410930Y-20936570D01*
X47425346Y-20952476D01*
X47438134Y-20969719D01*
X47449170Y-20988132D01*
X47458349Y-21007538D01*
X47465581Y-21027750D01*
X47470797Y-21048574D01*
X47473947Y-21069809D01*
X47475000Y-21091250D01*
X47475000Y-21528750D01*
X47473947Y-21550191D01*
X47470797Y-21571426D01*
X47465581Y-21592250D01*
X47458349Y-21612462D01*
X47449170Y-21631868D01*
X47438134Y-21650281D01*
X47425346Y-21667524D01*
X47410930Y-21683430D01*
X47395024Y-21697846D01*
X47377781Y-21710634D01*
X47359368Y-21721670D01*
X47339962Y-21730849D01*
X47319750Y-21738081D01*
X47298926Y-21743297D01*
X47277691Y-21746447D01*
X47256250Y-21747500D01*
X46743750Y-21747500D01*
X46722309Y-21746447D01*
X46701074Y-21743297D01*
X46680250Y-21738081D01*
X46660038Y-21730849D01*
X46640632Y-21721670D01*
X46622219Y-21710634D01*
X46604976Y-21697846D01*
X46589070Y-21683430D01*
X46574654Y-21667524D01*
X46561866Y-21650281D01*
X46550830Y-21631868D01*
X46541651Y-21612462D01*
X46534419Y-21592250D01*
X46529203Y-21571426D01*
X46526053Y-21550191D01*
X46525000Y-21528750D01*
X46525000Y-21091250D01*
X46526053Y-21069809D01*
X46529203Y-21048574D01*
X46534419Y-21027750D01*
X46541651Y-21007538D01*
X46550830Y-20988132D01*
X46561866Y-20969719D01*
X46574654Y-20952476D01*
X46589070Y-20936570D01*
X46604976Y-20922154D01*
X46622219Y-20909366D01*
X46640632Y-20898330D01*
X46660038Y-20889151D01*
X46680250Y-20881919D01*
X46701074Y-20876703D01*
X46722309Y-20873553D01*
X46743750Y-20872500D01*
X47256250Y-20872500D01*
X47277691Y-20873553D01*
X47277691Y-20873553D01*
G37*
D12*
X47000000Y-21310000D03*
D11*
G36*
X47277691Y-19298553D02*
G01*
X47298926Y-19301703D01*
X47319750Y-19306919D01*
X47339962Y-19314151D01*
X47359368Y-19323330D01*
X47377781Y-19334366D01*
X47395024Y-19347154D01*
X47410930Y-19361570D01*
X47425346Y-19377476D01*
X47438134Y-19394719D01*
X47449170Y-19413132D01*
X47458349Y-19432538D01*
X47465581Y-19452750D01*
X47470797Y-19473574D01*
X47473947Y-19494809D01*
X47475000Y-19516250D01*
X47475000Y-19953750D01*
X47473947Y-19975191D01*
X47470797Y-19996426D01*
X47465581Y-20017250D01*
X47458349Y-20037462D01*
X47449170Y-20056868D01*
X47438134Y-20075281D01*
X47425346Y-20092524D01*
X47410930Y-20108430D01*
X47395024Y-20122846D01*
X47377781Y-20135634D01*
X47359368Y-20146670D01*
X47339962Y-20155849D01*
X47319750Y-20163081D01*
X47298926Y-20168297D01*
X47277691Y-20171447D01*
X47256250Y-20172500D01*
X46743750Y-20172500D01*
X46722309Y-20171447D01*
X46701074Y-20168297D01*
X46680250Y-20163081D01*
X46660038Y-20155849D01*
X46640632Y-20146670D01*
X46622219Y-20135634D01*
X46604976Y-20122846D01*
X46589070Y-20108430D01*
X46574654Y-20092524D01*
X46561866Y-20075281D01*
X46550830Y-20056868D01*
X46541651Y-20037462D01*
X46534419Y-20017250D01*
X46529203Y-19996426D01*
X46526053Y-19975191D01*
X46525000Y-19953750D01*
X46525000Y-19516250D01*
X46526053Y-19494809D01*
X46529203Y-19473574D01*
X46534419Y-19452750D01*
X46541651Y-19432538D01*
X46550830Y-19413132D01*
X46561866Y-19394719D01*
X46574654Y-19377476D01*
X46589070Y-19361570D01*
X46604976Y-19347154D01*
X46622219Y-19334366D01*
X46640632Y-19323330D01*
X46660038Y-19314151D01*
X46680250Y-19306919D01*
X46701074Y-19301703D01*
X46722309Y-19298553D01*
X46743750Y-19297500D01*
X47256250Y-19297500D01*
X47277691Y-19298553D01*
X47277691Y-19298553D01*
G37*
D12*
X47000000Y-19735000D03*
D11*
G36*
X1277691Y-21851053D02*
G01*
X1298926Y-21854203D01*
X1319750Y-21859419D01*
X1339962Y-21866651D01*
X1359368Y-21875830D01*
X1377781Y-21886866D01*
X1395024Y-21899654D01*
X1410930Y-21914070D01*
X1425346Y-21929976D01*
X1438134Y-21947219D01*
X1449170Y-21965632D01*
X1458349Y-21985038D01*
X1465581Y-22005250D01*
X1470797Y-22026074D01*
X1473947Y-22047309D01*
X1475000Y-22068750D01*
X1475000Y-22506250D01*
X1473947Y-22527691D01*
X1470797Y-22548926D01*
X1465581Y-22569750D01*
X1458349Y-22589962D01*
X1449170Y-22609368D01*
X1438134Y-22627781D01*
X1425346Y-22645024D01*
X1410930Y-22660930D01*
X1395024Y-22675346D01*
X1377781Y-22688134D01*
X1359368Y-22699170D01*
X1339962Y-22708349D01*
X1319750Y-22715581D01*
X1298926Y-22720797D01*
X1277691Y-22723947D01*
X1256250Y-22725000D01*
X743750Y-22725000D01*
X722309Y-22723947D01*
X701074Y-22720797D01*
X680250Y-22715581D01*
X660038Y-22708349D01*
X640632Y-22699170D01*
X622219Y-22688134D01*
X604976Y-22675346D01*
X589070Y-22660930D01*
X574654Y-22645024D01*
X561866Y-22627781D01*
X550830Y-22609368D01*
X541651Y-22589962D01*
X534419Y-22569750D01*
X529203Y-22548926D01*
X526053Y-22527691D01*
X525000Y-22506250D01*
X525000Y-22068750D01*
X526053Y-22047309D01*
X529203Y-22026074D01*
X534419Y-22005250D01*
X541651Y-21985038D01*
X550830Y-21965632D01*
X561866Y-21947219D01*
X574654Y-21929976D01*
X589070Y-21914070D01*
X604976Y-21899654D01*
X622219Y-21886866D01*
X640632Y-21875830D01*
X660038Y-21866651D01*
X680250Y-21859419D01*
X701074Y-21854203D01*
X722309Y-21851053D01*
X743750Y-21850000D01*
X1256250Y-21850000D01*
X1277691Y-21851053D01*
X1277691Y-21851053D01*
G37*
D12*
X1000000Y-22287500D03*
D11*
G36*
X1277691Y-20276053D02*
G01*
X1298926Y-20279203D01*
X1319750Y-20284419D01*
X1339962Y-20291651D01*
X1359368Y-20300830D01*
X1377781Y-20311866D01*
X1395024Y-20324654D01*
X1410930Y-20339070D01*
X1425346Y-20354976D01*
X1438134Y-20372219D01*
X1449170Y-20390632D01*
X1458349Y-20410038D01*
X1465581Y-20430250D01*
X1470797Y-20451074D01*
X1473947Y-20472309D01*
X1475000Y-20493750D01*
X1475000Y-20931250D01*
X1473947Y-20952691D01*
X1470797Y-20973926D01*
X1465581Y-20994750D01*
X1458349Y-21014962D01*
X1449170Y-21034368D01*
X1438134Y-21052781D01*
X1425346Y-21070024D01*
X1410930Y-21085930D01*
X1395024Y-21100346D01*
X1377781Y-21113134D01*
X1359368Y-21124170D01*
X1339962Y-21133349D01*
X1319750Y-21140581D01*
X1298926Y-21145797D01*
X1277691Y-21148947D01*
X1256250Y-21150000D01*
X743750Y-21150000D01*
X722309Y-21148947D01*
X701074Y-21145797D01*
X680250Y-21140581D01*
X660038Y-21133349D01*
X640632Y-21124170D01*
X622219Y-21113134D01*
X604976Y-21100346D01*
X589070Y-21085930D01*
X574654Y-21070024D01*
X561866Y-21052781D01*
X550830Y-21034368D01*
X541651Y-21014962D01*
X534419Y-20994750D01*
X529203Y-20973926D01*
X526053Y-20952691D01*
X525000Y-20931250D01*
X525000Y-20493750D01*
X526053Y-20472309D01*
X529203Y-20451074D01*
X534419Y-20430250D01*
X541651Y-20410038D01*
X550830Y-20390632D01*
X561866Y-20372219D01*
X574654Y-20354976D01*
X589070Y-20339070D01*
X604976Y-20324654D01*
X622219Y-20311866D01*
X640632Y-20300830D01*
X660038Y-20291651D01*
X680250Y-20284419D01*
X701074Y-20279203D01*
X722309Y-20276053D01*
X743750Y-20275000D01*
X1256250Y-20275000D01*
X1277691Y-20276053D01*
X1277691Y-20276053D01*
G37*
D12*
X1000000Y-20712500D03*
D13*
X10970000Y-14780000D03*
X10970000Y-11280000D03*
D11*
G36*
X40900779Y-20851144D02*
G01*
X40923834Y-20854563D01*
X40946443Y-20860227D01*
X40968387Y-20868079D01*
X40989457Y-20878044D01*
X41009448Y-20890026D01*
X41028168Y-20903910D01*
X41045438Y-20919562D01*
X41061090Y-20936832D01*
X41074974Y-20955552D01*
X41086956Y-20975543D01*
X41096921Y-20996613D01*
X41104773Y-21018557D01*
X41110437Y-21041166D01*
X41113856Y-21064221D01*
X41115000Y-21087500D01*
X41115000Y-21662500D01*
X41113856Y-21685779D01*
X41110437Y-21708834D01*
X41104773Y-21731443D01*
X41096921Y-21753387D01*
X41086956Y-21774457D01*
X41074974Y-21794448D01*
X41061090Y-21813168D01*
X41045438Y-21830438D01*
X41028168Y-21846090D01*
X41009448Y-21859974D01*
X40989457Y-21871956D01*
X40968387Y-21881921D01*
X40946443Y-21889773D01*
X40923834Y-21895437D01*
X40900779Y-21898856D01*
X40877500Y-21900000D01*
X40402500Y-21900000D01*
X40379221Y-21898856D01*
X40356166Y-21895437D01*
X40333557Y-21889773D01*
X40311613Y-21881921D01*
X40290543Y-21871956D01*
X40270552Y-21859974D01*
X40251832Y-21846090D01*
X40234562Y-21830438D01*
X40218910Y-21813168D01*
X40205026Y-21794448D01*
X40193044Y-21774457D01*
X40183079Y-21753387D01*
X40175227Y-21731443D01*
X40169563Y-21708834D01*
X40166144Y-21685779D01*
X40165000Y-21662500D01*
X40165000Y-21087500D01*
X40166144Y-21064221D01*
X40169563Y-21041166D01*
X40175227Y-21018557D01*
X40183079Y-20996613D01*
X40193044Y-20975543D01*
X40205026Y-20955552D01*
X40218910Y-20936832D01*
X40234562Y-20919562D01*
X40251832Y-20903910D01*
X40270552Y-20890026D01*
X40290543Y-20878044D01*
X40311613Y-20868079D01*
X40333557Y-20860227D01*
X40356166Y-20854563D01*
X40379221Y-20851144D01*
X40402500Y-20850000D01*
X40877500Y-20850000D01*
X40900779Y-20851144D01*
X40900779Y-20851144D01*
G37*
D14*
X40640000Y-21375000D03*
D11*
G36*
X40900779Y-19101144D02*
G01*
X40923834Y-19104563D01*
X40946443Y-19110227D01*
X40968387Y-19118079D01*
X40989457Y-19128044D01*
X41009448Y-19140026D01*
X41028168Y-19153910D01*
X41045438Y-19169562D01*
X41061090Y-19186832D01*
X41074974Y-19205552D01*
X41086956Y-19225543D01*
X41096921Y-19246613D01*
X41104773Y-19268557D01*
X41110437Y-19291166D01*
X41113856Y-19314221D01*
X41115000Y-19337500D01*
X41115000Y-19912500D01*
X41113856Y-19935779D01*
X41110437Y-19958834D01*
X41104773Y-19981443D01*
X41096921Y-20003387D01*
X41086956Y-20024457D01*
X41074974Y-20044448D01*
X41061090Y-20063168D01*
X41045438Y-20080438D01*
X41028168Y-20096090D01*
X41009448Y-20109974D01*
X40989457Y-20121956D01*
X40968387Y-20131921D01*
X40946443Y-20139773D01*
X40923834Y-20145437D01*
X40900779Y-20148856D01*
X40877500Y-20150000D01*
X40402500Y-20150000D01*
X40379221Y-20148856D01*
X40356166Y-20145437D01*
X40333557Y-20139773D01*
X40311613Y-20131921D01*
X40290543Y-20121956D01*
X40270552Y-20109974D01*
X40251832Y-20096090D01*
X40234562Y-20080438D01*
X40218910Y-20063168D01*
X40205026Y-20044448D01*
X40193044Y-20024457D01*
X40183079Y-20003387D01*
X40175227Y-19981443D01*
X40169563Y-19958834D01*
X40166144Y-19935779D01*
X40165000Y-19912500D01*
X40165000Y-19337500D01*
X40166144Y-19314221D01*
X40169563Y-19291166D01*
X40175227Y-19268557D01*
X40183079Y-19246613D01*
X40193044Y-19225543D01*
X40205026Y-19205552D01*
X40218910Y-19186832D01*
X40234562Y-19169562D01*
X40251832Y-19153910D01*
X40270552Y-19140026D01*
X40290543Y-19128044D01*
X40311613Y-19118079D01*
X40333557Y-19110227D01*
X40356166Y-19104563D01*
X40379221Y-19101144D01*
X40402500Y-19100000D01*
X40877500Y-19100000D01*
X40900779Y-19101144D01*
X40900779Y-19101144D01*
G37*
D14*
X40640000Y-19625000D03*
D11*
G36*
X3760779Y-20101144D02*
G01*
X3783834Y-20104563D01*
X3806443Y-20110227D01*
X3828387Y-20118079D01*
X3849457Y-20128044D01*
X3869448Y-20140026D01*
X3888168Y-20153910D01*
X3905438Y-20169562D01*
X3921090Y-20186832D01*
X3934974Y-20205552D01*
X3946956Y-20225543D01*
X3956921Y-20246613D01*
X3964773Y-20268557D01*
X3970437Y-20291166D01*
X3973856Y-20314221D01*
X3975000Y-20337500D01*
X3975000Y-20912500D01*
X3973856Y-20935779D01*
X3970437Y-20958834D01*
X3964773Y-20981443D01*
X3956921Y-21003387D01*
X3946956Y-21024457D01*
X3934974Y-21044448D01*
X3921090Y-21063168D01*
X3905438Y-21080438D01*
X3888168Y-21096090D01*
X3869448Y-21109974D01*
X3849457Y-21121956D01*
X3828387Y-21131921D01*
X3806443Y-21139773D01*
X3783834Y-21145437D01*
X3760779Y-21148856D01*
X3737500Y-21150000D01*
X3262500Y-21150000D01*
X3239221Y-21148856D01*
X3216166Y-21145437D01*
X3193557Y-21139773D01*
X3171613Y-21131921D01*
X3150543Y-21121956D01*
X3130552Y-21109974D01*
X3111832Y-21096090D01*
X3094562Y-21080438D01*
X3078910Y-21063168D01*
X3065026Y-21044448D01*
X3053044Y-21024457D01*
X3043079Y-21003387D01*
X3035227Y-20981443D01*
X3029563Y-20958834D01*
X3026144Y-20935779D01*
X3025000Y-20912500D01*
X3025000Y-20337500D01*
X3026144Y-20314221D01*
X3029563Y-20291166D01*
X3035227Y-20268557D01*
X3043079Y-20246613D01*
X3053044Y-20225543D01*
X3065026Y-20205552D01*
X3078910Y-20186832D01*
X3094562Y-20169562D01*
X3111832Y-20153910D01*
X3130552Y-20140026D01*
X3150543Y-20128044D01*
X3171613Y-20118079D01*
X3193557Y-20110227D01*
X3216166Y-20104563D01*
X3239221Y-20101144D01*
X3262500Y-20100000D01*
X3737500Y-20100000D01*
X3760779Y-20101144D01*
X3760779Y-20101144D01*
G37*
D14*
X3500000Y-20625000D03*
D11*
G36*
X3760779Y-21851144D02*
G01*
X3783834Y-21854563D01*
X3806443Y-21860227D01*
X3828387Y-21868079D01*
X3849457Y-21878044D01*
X3869448Y-21890026D01*
X3888168Y-21903910D01*
X3905438Y-21919562D01*
X3921090Y-21936832D01*
X3934974Y-21955552D01*
X3946956Y-21975543D01*
X3956921Y-21996613D01*
X3964773Y-22018557D01*
X3970437Y-22041166D01*
X3973856Y-22064221D01*
X3975000Y-22087500D01*
X3975000Y-22662500D01*
X3973856Y-22685779D01*
X3970437Y-22708834D01*
X3964773Y-22731443D01*
X3956921Y-22753387D01*
X3946956Y-22774457D01*
X3934974Y-22794448D01*
X3921090Y-22813168D01*
X3905438Y-22830438D01*
X3888168Y-22846090D01*
X3869448Y-22859974D01*
X3849457Y-22871956D01*
X3828387Y-22881921D01*
X3806443Y-22889773D01*
X3783834Y-22895437D01*
X3760779Y-22898856D01*
X3737500Y-22900000D01*
X3262500Y-22900000D01*
X3239221Y-22898856D01*
X3216166Y-22895437D01*
X3193557Y-22889773D01*
X3171613Y-22881921D01*
X3150543Y-22871956D01*
X3130552Y-22859974D01*
X3111832Y-22846090D01*
X3094562Y-22830438D01*
X3078910Y-22813168D01*
X3065026Y-22794448D01*
X3053044Y-22774457D01*
X3043079Y-22753387D01*
X3035227Y-22731443D01*
X3029563Y-22708834D01*
X3026144Y-22685779D01*
X3025000Y-22662500D01*
X3025000Y-22087500D01*
X3026144Y-22064221D01*
X3029563Y-22041166D01*
X3035227Y-22018557D01*
X3043079Y-21996613D01*
X3053044Y-21975543D01*
X3065026Y-21955552D01*
X3078910Y-21936832D01*
X3094562Y-21919562D01*
X3111832Y-21903910D01*
X3130552Y-21890026D01*
X3150543Y-21878044D01*
X3171613Y-21868079D01*
X3193557Y-21860227D01*
X3216166Y-21854563D01*
X3239221Y-21851144D01*
X3262500Y-21850000D01*
X3737500Y-21850000D01*
X3760779Y-21851144D01*
X3760779Y-21851144D01*
G37*
D14*
X3500000Y-22375000D03*
D15*
X31519000Y-8382000D03*
X31519000Y-9652000D03*
X31519000Y-10922000D03*
X31519000Y-12192000D03*
X31519000Y-13462000D03*
X31519000Y-14732000D03*
X31519000Y-16002000D03*
X31519000Y-17272000D03*
X26119000Y-17272000D03*
X26119000Y-16002000D03*
X26119000Y-14732000D03*
X26119000Y-13462000D03*
X26119000Y-12192000D03*
X26119000Y-10922000D03*
X26119000Y-9652000D03*
X26119000Y-8382000D03*
D13*
X37005000Y-7250000D03*
X37005000Y-3750000D03*
D11*
G36*
X24491779Y-9114144D02*
G01*
X24514834Y-9117563D01*
X24537443Y-9123227D01*
X24559387Y-9131079D01*
X24580457Y-9141044D01*
X24600448Y-9153026D01*
X24619168Y-9166910D01*
X24636438Y-9182562D01*
X24652090Y-9199832D01*
X24665974Y-9218552D01*
X24677956Y-9238543D01*
X24687921Y-9259613D01*
X24695773Y-9281557D01*
X24701437Y-9304166D01*
X24704856Y-9327221D01*
X24706000Y-9350500D01*
X24706000Y-9925500D01*
X24704856Y-9948779D01*
X24701437Y-9971834D01*
X24695773Y-9994443D01*
X24687921Y-10016387D01*
X24677956Y-10037457D01*
X24665974Y-10057448D01*
X24652090Y-10076168D01*
X24636438Y-10093438D01*
X24619168Y-10109090D01*
X24600448Y-10122974D01*
X24580457Y-10134956D01*
X24559387Y-10144921D01*
X24537443Y-10152773D01*
X24514834Y-10158437D01*
X24491779Y-10161856D01*
X24468500Y-10163000D01*
X23993500Y-10163000D01*
X23970221Y-10161856D01*
X23947166Y-10158437D01*
X23924557Y-10152773D01*
X23902613Y-10144921D01*
X23881543Y-10134956D01*
X23861552Y-10122974D01*
X23842832Y-10109090D01*
X23825562Y-10093438D01*
X23809910Y-10076168D01*
X23796026Y-10057448D01*
X23784044Y-10037457D01*
X23774079Y-10016387D01*
X23766227Y-9994443D01*
X23760563Y-9971834D01*
X23757144Y-9948779D01*
X23756000Y-9925500D01*
X23756000Y-9350500D01*
X23757144Y-9327221D01*
X23760563Y-9304166D01*
X23766227Y-9281557D01*
X23774079Y-9259613D01*
X23784044Y-9238543D01*
X23796026Y-9218552D01*
X23809910Y-9199832D01*
X23825562Y-9182562D01*
X23842832Y-9166910D01*
X23861552Y-9153026D01*
X23881543Y-9141044D01*
X23902613Y-9131079D01*
X23924557Y-9123227D01*
X23947166Y-9117563D01*
X23970221Y-9114144D01*
X23993500Y-9113000D01*
X24468500Y-9113000D01*
X24491779Y-9114144D01*
X24491779Y-9114144D01*
G37*
D14*
X24231000Y-9638000D03*
D11*
G36*
X24491779Y-7364144D02*
G01*
X24514834Y-7367563D01*
X24537443Y-7373227D01*
X24559387Y-7381079D01*
X24580457Y-7391044D01*
X24600448Y-7403026D01*
X24619168Y-7416910D01*
X24636438Y-7432562D01*
X24652090Y-7449832D01*
X24665974Y-7468552D01*
X24677956Y-7488543D01*
X24687921Y-7509613D01*
X24695773Y-7531557D01*
X24701437Y-7554166D01*
X24704856Y-7577221D01*
X24706000Y-7600500D01*
X24706000Y-8175500D01*
X24704856Y-8198779D01*
X24701437Y-8221834D01*
X24695773Y-8244443D01*
X24687921Y-8266387D01*
X24677956Y-8287457D01*
X24665974Y-8307448D01*
X24652090Y-8326168D01*
X24636438Y-8343438D01*
X24619168Y-8359090D01*
X24600448Y-8372974D01*
X24580457Y-8384956D01*
X24559387Y-8394921D01*
X24537443Y-8402773D01*
X24514834Y-8408437D01*
X24491779Y-8411856D01*
X24468500Y-8413000D01*
X23993500Y-8413000D01*
X23970221Y-8411856D01*
X23947166Y-8408437D01*
X23924557Y-8402773D01*
X23902613Y-8394921D01*
X23881543Y-8384956D01*
X23861552Y-8372974D01*
X23842832Y-8359090D01*
X23825562Y-8343438D01*
X23809910Y-8326168D01*
X23796026Y-8307448D01*
X23784044Y-8287457D01*
X23774079Y-8266387D01*
X23766227Y-8244443D01*
X23760563Y-8221834D01*
X23757144Y-8198779D01*
X23756000Y-8175500D01*
X23756000Y-7600500D01*
X23757144Y-7577221D01*
X23760563Y-7554166D01*
X23766227Y-7531557D01*
X23774079Y-7509613D01*
X23784044Y-7488543D01*
X23796026Y-7468552D01*
X23809910Y-7449832D01*
X23825562Y-7432562D01*
X23842832Y-7416910D01*
X23861552Y-7403026D01*
X23881543Y-7391044D01*
X23902613Y-7381079D01*
X23924557Y-7373227D01*
X23947166Y-7367563D01*
X23970221Y-7364144D01*
X23993500Y-7363000D01*
X24468500Y-7363000D01*
X24491779Y-7364144D01*
X24491779Y-7364144D01*
G37*
D14*
X24231000Y-7888000D03*
D11*
G36*
X24491779Y-13178144D02*
G01*
X24514834Y-13181563D01*
X24537443Y-13187227D01*
X24559387Y-13195079D01*
X24580457Y-13205044D01*
X24600448Y-13217026D01*
X24619168Y-13230910D01*
X24636438Y-13246562D01*
X24652090Y-13263832D01*
X24665974Y-13282552D01*
X24677956Y-13302543D01*
X24687921Y-13323613D01*
X24695773Y-13345557D01*
X24701437Y-13368166D01*
X24704856Y-13391221D01*
X24706000Y-13414500D01*
X24706000Y-13989500D01*
X24704856Y-14012779D01*
X24701437Y-14035834D01*
X24695773Y-14058443D01*
X24687921Y-14080387D01*
X24677956Y-14101457D01*
X24665974Y-14121448D01*
X24652090Y-14140168D01*
X24636438Y-14157438D01*
X24619168Y-14173090D01*
X24600448Y-14186974D01*
X24580457Y-14198956D01*
X24559387Y-14208921D01*
X24537443Y-14216773D01*
X24514834Y-14222437D01*
X24491779Y-14225856D01*
X24468500Y-14227000D01*
X23993500Y-14227000D01*
X23970221Y-14225856D01*
X23947166Y-14222437D01*
X23924557Y-14216773D01*
X23902613Y-14208921D01*
X23881543Y-14198956D01*
X23861552Y-14186974D01*
X23842832Y-14173090D01*
X23825562Y-14157438D01*
X23809910Y-14140168D01*
X23796026Y-14121448D01*
X23784044Y-14101457D01*
X23774079Y-14080387D01*
X23766227Y-14058443D01*
X23760563Y-14035834D01*
X23757144Y-14012779D01*
X23756000Y-13989500D01*
X23756000Y-13414500D01*
X23757144Y-13391221D01*
X23760563Y-13368166D01*
X23766227Y-13345557D01*
X23774079Y-13323613D01*
X23784044Y-13302543D01*
X23796026Y-13282552D01*
X23809910Y-13263832D01*
X23825562Y-13246562D01*
X23842832Y-13230910D01*
X23861552Y-13217026D01*
X23881543Y-13205044D01*
X23902613Y-13195079D01*
X23924557Y-13187227D01*
X23947166Y-13181563D01*
X23970221Y-13178144D01*
X23993500Y-13177000D01*
X24468500Y-13177000D01*
X24491779Y-13178144D01*
X24491779Y-13178144D01*
G37*
D14*
X24231000Y-13702000D03*
D11*
G36*
X24491779Y-11428144D02*
G01*
X24514834Y-11431563D01*
X24537443Y-11437227D01*
X24559387Y-11445079D01*
X24580457Y-11455044D01*
X24600448Y-11467026D01*
X24619168Y-11480910D01*
X24636438Y-11496562D01*
X24652090Y-11513832D01*
X24665974Y-11532552D01*
X24677956Y-11552543D01*
X24687921Y-11573613D01*
X24695773Y-11595557D01*
X24701437Y-11618166D01*
X24704856Y-11641221D01*
X24706000Y-11664500D01*
X24706000Y-12239500D01*
X24704856Y-12262779D01*
X24701437Y-12285834D01*
X24695773Y-12308443D01*
X24687921Y-12330387D01*
X24677956Y-12351457D01*
X24665974Y-12371448D01*
X24652090Y-12390168D01*
X24636438Y-12407438D01*
X24619168Y-12423090D01*
X24600448Y-12436974D01*
X24580457Y-12448956D01*
X24559387Y-12458921D01*
X24537443Y-12466773D01*
X24514834Y-12472437D01*
X24491779Y-12475856D01*
X24468500Y-12477000D01*
X23993500Y-12477000D01*
X23970221Y-12475856D01*
X23947166Y-12472437D01*
X23924557Y-12466773D01*
X23902613Y-12458921D01*
X23881543Y-12448956D01*
X23861552Y-12436974D01*
X23842832Y-12423090D01*
X23825562Y-12407438D01*
X23809910Y-12390168D01*
X23796026Y-12371448D01*
X23784044Y-12351457D01*
X23774079Y-12330387D01*
X23766227Y-12308443D01*
X23760563Y-12285834D01*
X23757144Y-12262779D01*
X23756000Y-12239500D01*
X23756000Y-11664500D01*
X23757144Y-11641221D01*
X23760563Y-11618166D01*
X23766227Y-11595557D01*
X23774079Y-11573613D01*
X23784044Y-11552543D01*
X23796026Y-11532552D01*
X23809910Y-11513832D01*
X23825562Y-11496562D01*
X23842832Y-11480910D01*
X23861552Y-11467026D01*
X23881543Y-11455044D01*
X23902613Y-11445079D01*
X23924557Y-11437227D01*
X23947166Y-11431563D01*
X23970221Y-11428144D01*
X23993500Y-11427000D01*
X24468500Y-11427000D01*
X24491779Y-11428144D01*
X24491779Y-11428144D01*
G37*
D14*
X24231000Y-11952000D03*
D11*
G36*
X26212779Y-5749144D02*
G01*
X26235834Y-5752563D01*
X26258443Y-5758227D01*
X26280387Y-5766079D01*
X26301457Y-5776044D01*
X26321448Y-5788026D01*
X26340168Y-5801910D01*
X26357438Y-5817562D01*
X26373090Y-5834832D01*
X26386974Y-5853552D01*
X26398956Y-5873543D01*
X26408921Y-5894613D01*
X26416773Y-5916557D01*
X26422437Y-5939166D01*
X26425856Y-5962221D01*
X26427000Y-5985500D01*
X26427000Y-6460500D01*
X26425856Y-6483779D01*
X26422437Y-6506834D01*
X26416773Y-6529443D01*
X26408921Y-6551387D01*
X26398956Y-6572457D01*
X26386974Y-6592448D01*
X26373090Y-6611168D01*
X26357438Y-6628438D01*
X26340168Y-6644090D01*
X26321448Y-6657974D01*
X26301457Y-6669956D01*
X26280387Y-6679921D01*
X26258443Y-6687773D01*
X26235834Y-6693437D01*
X26212779Y-6696856D01*
X26189500Y-6698000D01*
X25614500Y-6698000D01*
X25591221Y-6696856D01*
X25568166Y-6693437D01*
X25545557Y-6687773D01*
X25523613Y-6679921D01*
X25502543Y-6669956D01*
X25482552Y-6657974D01*
X25463832Y-6644090D01*
X25446562Y-6628438D01*
X25430910Y-6611168D01*
X25417026Y-6592448D01*
X25405044Y-6572457D01*
X25395079Y-6551387D01*
X25387227Y-6529443D01*
X25381563Y-6506834D01*
X25378144Y-6483779D01*
X25377000Y-6460500D01*
X25377000Y-5985500D01*
X25378144Y-5962221D01*
X25381563Y-5939166D01*
X25387227Y-5916557D01*
X25395079Y-5894613D01*
X25405044Y-5873543D01*
X25417026Y-5853552D01*
X25430910Y-5834832D01*
X25446562Y-5817562D01*
X25463832Y-5801910D01*
X25482552Y-5788026D01*
X25502543Y-5776044D01*
X25523613Y-5766079D01*
X25545557Y-5758227D01*
X25568166Y-5752563D01*
X25591221Y-5749144D01*
X25614500Y-5748000D01*
X26189500Y-5748000D01*
X26212779Y-5749144D01*
X26212779Y-5749144D01*
G37*
D14*
X25902000Y-6223000D03*
D11*
G36*
X27962779Y-5749144D02*
G01*
X27985834Y-5752563D01*
X28008443Y-5758227D01*
X28030387Y-5766079D01*
X28051457Y-5776044D01*
X28071448Y-5788026D01*
X28090168Y-5801910D01*
X28107438Y-5817562D01*
X28123090Y-5834832D01*
X28136974Y-5853552D01*
X28148956Y-5873543D01*
X28158921Y-5894613D01*
X28166773Y-5916557D01*
X28172437Y-5939166D01*
X28175856Y-5962221D01*
X28177000Y-5985500D01*
X28177000Y-6460500D01*
X28175856Y-6483779D01*
X28172437Y-6506834D01*
X28166773Y-6529443D01*
X28158921Y-6551387D01*
X28148956Y-6572457D01*
X28136974Y-6592448D01*
X28123090Y-6611168D01*
X28107438Y-6628438D01*
X28090168Y-6644090D01*
X28071448Y-6657974D01*
X28051457Y-6669956D01*
X28030387Y-6679921D01*
X28008443Y-6687773D01*
X27985834Y-6693437D01*
X27962779Y-6696856D01*
X27939500Y-6698000D01*
X27364500Y-6698000D01*
X27341221Y-6696856D01*
X27318166Y-6693437D01*
X27295557Y-6687773D01*
X27273613Y-6679921D01*
X27252543Y-6669956D01*
X27232552Y-6657974D01*
X27213832Y-6644090D01*
X27196562Y-6628438D01*
X27180910Y-6611168D01*
X27167026Y-6592448D01*
X27155044Y-6572457D01*
X27145079Y-6551387D01*
X27137227Y-6529443D01*
X27131563Y-6506834D01*
X27128144Y-6483779D01*
X27127000Y-6460500D01*
X27127000Y-5985500D01*
X27128144Y-5962221D01*
X27131563Y-5939166D01*
X27137227Y-5916557D01*
X27145079Y-5894613D01*
X27155044Y-5873543D01*
X27167026Y-5853552D01*
X27180910Y-5834832D01*
X27196562Y-5817562D01*
X27213832Y-5801910D01*
X27232552Y-5788026D01*
X27252543Y-5776044D01*
X27273613Y-5766079D01*
X27295557Y-5758227D01*
X27318166Y-5752563D01*
X27341221Y-5749144D01*
X27364500Y-5748000D01*
X27939500Y-5748000D01*
X27962779Y-5749144D01*
X27962779Y-5749144D01*
G37*
D14*
X27652000Y-6223000D03*
D11*
G36*
X24491779Y-15492144D02*
G01*
X24514834Y-15495563D01*
X24537443Y-15501227D01*
X24559387Y-15509079D01*
X24580457Y-15519044D01*
X24600448Y-15531026D01*
X24619168Y-15544910D01*
X24636438Y-15560562D01*
X24652090Y-15577832D01*
X24665974Y-15596552D01*
X24677956Y-15616543D01*
X24687921Y-15637613D01*
X24695773Y-15659557D01*
X24701437Y-15682166D01*
X24704856Y-15705221D01*
X24706000Y-15728500D01*
X24706000Y-16303500D01*
X24704856Y-16326779D01*
X24701437Y-16349834D01*
X24695773Y-16372443D01*
X24687921Y-16394387D01*
X24677956Y-16415457D01*
X24665974Y-16435448D01*
X24652090Y-16454168D01*
X24636438Y-16471438D01*
X24619168Y-16487090D01*
X24600448Y-16500974D01*
X24580457Y-16512956D01*
X24559387Y-16522921D01*
X24537443Y-16530773D01*
X24514834Y-16536437D01*
X24491779Y-16539856D01*
X24468500Y-16541000D01*
X23993500Y-16541000D01*
X23970221Y-16539856D01*
X23947166Y-16536437D01*
X23924557Y-16530773D01*
X23902613Y-16522921D01*
X23881543Y-16512956D01*
X23861552Y-16500974D01*
X23842832Y-16487090D01*
X23825562Y-16471438D01*
X23809910Y-16454168D01*
X23796026Y-16435448D01*
X23784044Y-16415457D01*
X23774079Y-16394387D01*
X23766227Y-16372443D01*
X23760563Y-16349834D01*
X23757144Y-16326779D01*
X23756000Y-16303500D01*
X23756000Y-15728500D01*
X23757144Y-15705221D01*
X23760563Y-15682166D01*
X23766227Y-15659557D01*
X23774079Y-15637613D01*
X23784044Y-15616543D01*
X23796026Y-15596552D01*
X23809910Y-15577832D01*
X23825562Y-15560562D01*
X23842832Y-15544910D01*
X23861552Y-15531026D01*
X23881543Y-15519044D01*
X23902613Y-15509079D01*
X23924557Y-15501227D01*
X23947166Y-15495563D01*
X23970221Y-15492144D01*
X23993500Y-15491000D01*
X24468500Y-15491000D01*
X24491779Y-15492144D01*
X24491779Y-15492144D01*
G37*
D14*
X24231000Y-16016000D03*
D11*
G36*
X24491779Y-17242144D02*
G01*
X24514834Y-17245563D01*
X24537443Y-17251227D01*
X24559387Y-17259079D01*
X24580457Y-17269044D01*
X24600448Y-17281026D01*
X24619168Y-17294910D01*
X24636438Y-17310562D01*
X24652090Y-17327832D01*
X24665974Y-17346552D01*
X24677956Y-17366543D01*
X24687921Y-17387613D01*
X24695773Y-17409557D01*
X24701437Y-17432166D01*
X24704856Y-17455221D01*
X24706000Y-17478500D01*
X24706000Y-18053500D01*
X24704856Y-18076779D01*
X24701437Y-18099834D01*
X24695773Y-18122443D01*
X24687921Y-18144387D01*
X24677956Y-18165457D01*
X24665974Y-18185448D01*
X24652090Y-18204168D01*
X24636438Y-18221438D01*
X24619168Y-18237090D01*
X24600448Y-18250974D01*
X24580457Y-18262956D01*
X24559387Y-18272921D01*
X24537443Y-18280773D01*
X24514834Y-18286437D01*
X24491779Y-18289856D01*
X24468500Y-18291000D01*
X23993500Y-18291000D01*
X23970221Y-18289856D01*
X23947166Y-18286437D01*
X23924557Y-18280773D01*
X23902613Y-18272921D01*
X23881543Y-18262956D01*
X23861552Y-18250974D01*
X23842832Y-18237090D01*
X23825562Y-18221438D01*
X23809910Y-18204168D01*
X23796026Y-18185448D01*
X23784044Y-18165457D01*
X23774079Y-18144387D01*
X23766227Y-18122443D01*
X23760563Y-18099834D01*
X23757144Y-18076779D01*
X23756000Y-18053500D01*
X23756000Y-17478500D01*
X23757144Y-17455221D01*
X23760563Y-17432166D01*
X23766227Y-17409557D01*
X23774079Y-17387613D01*
X23784044Y-17366543D01*
X23796026Y-17346552D01*
X23809910Y-17327832D01*
X23825562Y-17310562D01*
X23842832Y-17294910D01*
X23861552Y-17281026D01*
X23881543Y-17269044D01*
X23902613Y-17259079D01*
X23924557Y-17251227D01*
X23947166Y-17245563D01*
X23970221Y-17242144D01*
X23993500Y-17241000D01*
X24468500Y-17241000D01*
X24491779Y-17242144D01*
X24491779Y-17242144D01*
G37*
D14*
X24231000Y-17766000D03*
D11*
G36*
X31405779Y-5749144D02*
G01*
X31428834Y-5752563D01*
X31451443Y-5758227D01*
X31473387Y-5766079D01*
X31494457Y-5776044D01*
X31514448Y-5788026D01*
X31533168Y-5801910D01*
X31550438Y-5817562D01*
X31566090Y-5834832D01*
X31579974Y-5853552D01*
X31591956Y-5873543D01*
X31601921Y-5894613D01*
X31609773Y-5916557D01*
X31615437Y-5939166D01*
X31618856Y-5962221D01*
X31620000Y-5985500D01*
X31620000Y-6460500D01*
X31618856Y-6483779D01*
X31615437Y-6506834D01*
X31609773Y-6529443D01*
X31601921Y-6551387D01*
X31591956Y-6572457D01*
X31579974Y-6592448D01*
X31566090Y-6611168D01*
X31550438Y-6628438D01*
X31533168Y-6644090D01*
X31514448Y-6657974D01*
X31494457Y-6669956D01*
X31473387Y-6679921D01*
X31451443Y-6687773D01*
X31428834Y-6693437D01*
X31405779Y-6696856D01*
X31382500Y-6698000D01*
X30807500Y-6698000D01*
X30784221Y-6696856D01*
X30761166Y-6693437D01*
X30738557Y-6687773D01*
X30716613Y-6679921D01*
X30695543Y-6669956D01*
X30675552Y-6657974D01*
X30656832Y-6644090D01*
X30639562Y-6628438D01*
X30623910Y-6611168D01*
X30610026Y-6592448D01*
X30598044Y-6572457D01*
X30588079Y-6551387D01*
X30580227Y-6529443D01*
X30574563Y-6506834D01*
X30571144Y-6483779D01*
X30570000Y-6460500D01*
X30570000Y-5985500D01*
X30571144Y-5962221D01*
X30574563Y-5939166D01*
X30580227Y-5916557D01*
X30588079Y-5894613D01*
X30598044Y-5873543D01*
X30610026Y-5853552D01*
X30623910Y-5834832D01*
X30639562Y-5817562D01*
X30656832Y-5801910D01*
X30675552Y-5788026D01*
X30695543Y-5776044D01*
X30716613Y-5766079D01*
X30738557Y-5758227D01*
X30761166Y-5752563D01*
X30784221Y-5749144D01*
X30807500Y-5748000D01*
X31382500Y-5748000D01*
X31405779Y-5749144D01*
X31405779Y-5749144D01*
G37*
D14*
X31095000Y-6223000D03*
D11*
G36*
X29655779Y-5749144D02*
G01*
X29678834Y-5752563D01*
X29701443Y-5758227D01*
X29723387Y-5766079D01*
X29744457Y-5776044D01*
X29764448Y-5788026D01*
X29783168Y-5801910D01*
X29800438Y-5817562D01*
X29816090Y-5834832D01*
X29829974Y-5853552D01*
X29841956Y-5873543D01*
X29851921Y-5894613D01*
X29859773Y-5916557D01*
X29865437Y-5939166D01*
X29868856Y-5962221D01*
X29870000Y-5985500D01*
X29870000Y-6460500D01*
X29868856Y-6483779D01*
X29865437Y-6506834D01*
X29859773Y-6529443D01*
X29851921Y-6551387D01*
X29841956Y-6572457D01*
X29829974Y-6592448D01*
X29816090Y-6611168D01*
X29800438Y-6628438D01*
X29783168Y-6644090D01*
X29764448Y-6657974D01*
X29744457Y-6669956D01*
X29723387Y-6679921D01*
X29701443Y-6687773D01*
X29678834Y-6693437D01*
X29655779Y-6696856D01*
X29632500Y-6698000D01*
X29057500Y-6698000D01*
X29034221Y-6696856D01*
X29011166Y-6693437D01*
X28988557Y-6687773D01*
X28966613Y-6679921D01*
X28945543Y-6669956D01*
X28925552Y-6657974D01*
X28906832Y-6644090D01*
X28889562Y-6628438D01*
X28873910Y-6611168D01*
X28860026Y-6592448D01*
X28848044Y-6572457D01*
X28838079Y-6551387D01*
X28830227Y-6529443D01*
X28824563Y-6506834D01*
X28821144Y-6483779D01*
X28820000Y-6460500D01*
X28820000Y-5985500D01*
X28821144Y-5962221D01*
X28824563Y-5939166D01*
X28830227Y-5916557D01*
X28838079Y-5894613D01*
X28848044Y-5873543D01*
X28860026Y-5853552D01*
X28873910Y-5834832D01*
X28889562Y-5817562D01*
X28906832Y-5801910D01*
X28925552Y-5788026D01*
X28945543Y-5776044D01*
X28966613Y-5766079D01*
X28988557Y-5758227D01*
X29011166Y-5752563D01*
X29034221Y-5749144D01*
X29057500Y-5748000D01*
X29632500Y-5748000D01*
X29655779Y-5749144D01*
X29655779Y-5749144D01*
G37*
D14*
X29345000Y-6223000D03*
D11*
G36*
X8467659Y-5147144D02*
G01*
X8490714Y-5150563D01*
X8513323Y-5156227D01*
X8535267Y-5164079D01*
X8556337Y-5174044D01*
X8576328Y-5186026D01*
X8595048Y-5199910D01*
X8612318Y-5215562D01*
X8627970Y-5232832D01*
X8641854Y-5251552D01*
X8653836Y-5271543D01*
X8663801Y-5292613D01*
X8671653Y-5314557D01*
X8677317Y-5337166D01*
X8680736Y-5360221D01*
X8681880Y-5383500D01*
X8681880Y-5958500D01*
X8680736Y-5981779D01*
X8677317Y-6004834D01*
X8671653Y-6027443D01*
X8663801Y-6049387D01*
X8653836Y-6070457D01*
X8641854Y-6090448D01*
X8627970Y-6109168D01*
X8612318Y-6126438D01*
X8595048Y-6142090D01*
X8576328Y-6155974D01*
X8556337Y-6167956D01*
X8535267Y-6177921D01*
X8513323Y-6185773D01*
X8490714Y-6191437D01*
X8467659Y-6194856D01*
X8444380Y-6196000D01*
X7969380Y-6196000D01*
X7946101Y-6194856D01*
X7923046Y-6191437D01*
X7900437Y-6185773D01*
X7878493Y-6177921D01*
X7857423Y-6167956D01*
X7837432Y-6155974D01*
X7818712Y-6142090D01*
X7801442Y-6126438D01*
X7785790Y-6109168D01*
X7771906Y-6090448D01*
X7759924Y-6070457D01*
X7749959Y-6049387D01*
X7742107Y-6027443D01*
X7736443Y-6004834D01*
X7733024Y-5981779D01*
X7731880Y-5958500D01*
X7731880Y-5383500D01*
X7733024Y-5360221D01*
X7736443Y-5337166D01*
X7742107Y-5314557D01*
X7749959Y-5292613D01*
X7759924Y-5271543D01*
X7771906Y-5251552D01*
X7785790Y-5232832D01*
X7801442Y-5215562D01*
X7818712Y-5199910D01*
X7837432Y-5186026D01*
X7857423Y-5174044D01*
X7878493Y-5164079D01*
X7900437Y-5156227D01*
X7923046Y-5150563D01*
X7946101Y-5147144D01*
X7969380Y-5146000D01*
X8444380Y-5146000D01*
X8467659Y-5147144D01*
X8467659Y-5147144D01*
G37*
D14*
X8206880Y-5671000D03*
D11*
G36*
X8467659Y-3397144D02*
G01*
X8490714Y-3400563D01*
X8513323Y-3406227D01*
X8535267Y-3414079D01*
X8556337Y-3424044D01*
X8576328Y-3436026D01*
X8595048Y-3449910D01*
X8612318Y-3465562D01*
X8627970Y-3482832D01*
X8641854Y-3501552D01*
X8653836Y-3521543D01*
X8663801Y-3542613D01*
X8671653Y-3564557D01*
X8677317Y-3587166D01*
X8680736Y-3610221D01*
X8681880Y-3633500D01*
X8681880Y-4208500D01*
X8680736Y-4231779D01*
X8677317Y-4254834D01*
X8671653Y-4277443D01*
X8663801Y-4299387D01*
X8653836Y-4320457D01*
X8641854Y-4340448D01*
X8627970Y-4359168D01*
X8612318Y-4376438D01*
X8595048Y-4392090D01*
X8576328Y-4405974D01*
X8556337Y-4417956D01*
X8535267Y-4427921D01*
X8513323Y-4435773D01*
X8490714Y-4441437D01*
X8467659Y-4444856D01*
X8444380Y-4446000D01*
X7969380Y-4446000D01*
X7946101Y-4444856D01*
X7923046Y-4441437D01*
X7900437Y-4435773D01*
X7878493Y-4427921D01*
X7857423Y-4417956D01*
X7837432Y-4405974D01*
X7818712Y-4392090D01*
X7801442Y-4376438D01*
X7785790Y-4359168D01*
X7771906Y-4340448D01*
X7759924Y-4320457D01*
X7749959Y-4299387D01*
X7742107Y-4277443D01*
X7736443Y-4254834D01*
X7733024Y-4231779D01*
X7731880Y-4208500D01*
X7731880Y-3633500D01*
X7733024Y-3610221D01*
X7736443Y-3587166D01*
X7742107Y-3564557D01*
X7749959Y-3542613D01*
X7759924Y-3521543D01*
X7771906Y-3501552D01*
X7785790Y-3482832D01*
X7801442Y-3465562D01*
X7818712Y-3449910D01*
X7837432Y-3436026D01*
X7857423Y-3424044D01*
X7878493Y-3414079D01*
X7900437Y-3406227D01*
X7923046Y-3400563D01*
X7946101Y-3397144D01*
X7969380Y-3396000D01*
X8444380Y-3396000D01*
X8467659Y-3397144D01*
X8467659Y-3397144D01*
G37*
D14*
X8206880Y-3921000D03*
D11*
G36*
X35890779Y-13856144D02*
G01*
X35913834Y-13859563D01*
X35936443Y-13865227D01*
X35958387Y-13873079D01*
X35979457Y-13883044D01*
X35999448Y-13895026D01*
X36018168Y-13908910D01*
X36035438Y-13924562D01*
X36051090Y-13941832D01*
X36064974Y-13960552D01*
X36076956Y-13980543D01*
X36086921Y-14001613D01*
X36094773Y-14023557D01*
X36100437Y-14046166D01*
X36103856Y-14069221D01*
X36105000Y-14092500D01*
X36105000Y-14567500D01*
X36103856Y-14590779D01*
X36100437Y-14613834D01*
X36094773Y-14636443D01*
X36086921Y-14658387D01*
X36076956Y-14679457D01*
X36064974Y-14699448D01*
X36051090Y-14718168D01*
X36035438Y-14735438D01*
X36018168Y-14751090D01*
X35999448Y-14764974D01*
X35979457Y-14776956D01*
X35958387Y-14786921D01*
X35936443Y-14794773D01*
X35913834Y-14800437D01*
X35890779Y-14803856D01*
X35867500Y-14805000D01*
X35292500Y-14805000D01*
X35269221Y-14803856D01*
X35246166Y-14800437D01*
X35223557Y-14794773D01*
X35201613Y-14786921D01*
X35180543Y-14776956D01*
X35160552Y-14764974D01*
X35141832Y-14751090D01*
X35124562Y-14735438D01*
X35108910Y-14718168D01*
X35095026Y-14699448D01*
X35083044Y-14679457D01*
X35073079Y-14658387D01*
X35065227Y-14636443D01*
X35059563Y-14613834D01*
X35056144Y-14590779D01*
X35055000Y-14567500D01*
X35055000Y-14092500D01*
X35056144Y-14069221D01*
X35059563Y-14046166D01*
X35065227Y-14023557D01*
X35073079Y-14001613D01*
X35083044Y-13980543D01*
X35095026Y-13960552D01*
X35108910Y-13941832D01*
X35124562Y-13924562D01*
X35141832Y-13908910D01*
X35160552Y-13895026D01*
X35180543Y-13883044D01*
X35201613Y-13873079D01*
X35223557Y-13865227D01*
X35246166Y-13859563D01*
X35269221Y-13856144D01*
X35292500Y-13855000D01*
X35867500Y-13855000D01*
X35890779Y-13856144D01*
X35890779Y-13856144D01*
G37*
D14*
X35580000Y-14330000D03*
D11*
G36*
X37640779Y-13856144D02*
G01*
X37663834Y-13859563D01*
X37686443Y-13865227D01*
X37708387Y-13873079D01*
X37729457Y-13883044D01*
X37749448Y-13895026D01*
X37768168Y-13908910D01*
X37785438Y-13924562D01*
X37801090Y-13941832D01*
X37814974Y-13960552D01*
X37826956Y-13980543D01*
X37836921Y-14001613D01*
X37844773Y-14023557D01*
X37850437Y-14046166D01*
X37853856Y-14069221D01*
X37855000Y-14092500D01*
X37855000Y-14567500D01*
X37853856Y-14590779D01*
X37850437Y-14613834D01*
X37844773Y-14636443D01*
X37836921Y-14658387D01*
X37826956Y-14679457D01*
X37814974Y-14699448D01*
X37801090Y-14718168D01*
X37785438Y-14735438D01*
X37768168Y-14751090D01*
X37749448Y-14764974D01*
X37729457Y-14776956D01*
X37708387Y-14786921D01*
X37686443Y-14794773D01*
X37663834Y-14800437D01*
X37640779Y-14803856D01*
X37617500Y-14805000D01*
X37042500Y-14805000D01*
X37019221Y-14803856D01*
X36996166Y-14800437D01*
X36973557Y-14794773D01*
X36951613Y-14786921D01*
X36930543Y-14776956D01*
X36910552Y-14764974D01*
X36891832Y-14751090D01*
X36874562Y-14735438D01*
X36858910Y-14718168D01*
X36845026Y-14699448D01*
X36833044Y-14679457D01*
X36823079Y-14658387D01*
X36815227Y-14636443D01*
X36809563Y-14613834D01*
X36806144Y-14590779D01*
X36805000Y-14567500D01*
X36805000Y-14092500D01*
X36806144Y-14069221D01*
X36809563Y-14046166D01*
X36815227Y-14023557D01*
X36823079Y-14001613D01*
X36833044Y-13980543D01*
X36845026Y-13960552D01*
X36858910Y-13941832D01*
X36874562Y-13924562D01*
X36891832Y-13908910D01*
X36910552Y-13895026D01*
X36930543Y-13883044D01*
X36951613Y-13873079D01*
X36973557Y-13865227D01*
X36996166Y-13859563D01*
X37019221Y-13856144D01*
X37042500Y-13855000D01*
X37617500Y-13855000D01*
X37640779Y-13856144D01*
X37640779Y-13856144D01*
G37*
D14*
X37330000Y-14330000D03*
D11*
G36*
X35887005Y-11401204D02*
G01*
X35911273Y-11404804D01*
X35935072Y-11410765D01*
X35958171Y-11419030D01*
X35980350Y-11429520D01*
X36001393Y-11442132D01*
X36021099Y-11456747D01*
X36039277Y-11473223D01*
X36055753Y-11491401D01*
X36070368Y-11511107D01*
X36082980Y-11532150D01*
X36093470Y-11554329D01*
X36101735Y-11577428D01*
X36107696Y-11601227D01*
X36111296Y-11625495D01*
X36112500Y-11649999D01*
X36112500Y-12550001D01*
X36111296Y-12574505D01*
X36107696Y-12598773D01*
X36101735Y-12622572D01*
X36093470Y-12645671D01*
X36082980Y-12667850D01*
X36070368Y-12688893D01*
X36055753Y-12708599D01*
X36039277Y-12726777D01*
X36021099Y-12743253D01*
X36001393Y-12757868D01*
X35980350Y-12770480D01*
X35958171Y-12780970D01*
X35935072Y-12789235D01*
X35911273Y-12795196D01*
X35887005Y-12798796D01*
X35862501Y-12800000D01*
X35037499Y-12800000D01*
X35012995Y-12798796D01*
X34988727Y-12795196D01*
X34964928Y-12789235D01*
X34941829Y-12780970D01*
X34919650Y-12770480D01*
X34898607Y-12757868D01*
X34878901Y-12743253D01*
X34860723Y-12726777D01*
X34844247Y-12708599D01*
X34829632Y-12688893D01*
X34817020Y-12667850D01*
X34806530Y-12645671D01*
X34798265Y-12622572D01*
X34792304Y-12598773D01*
X34788704Y-12574505D01*
X34787500Y-12550001D01*
X34787500Y-11649999D01*
X34788704Y-11625495D01*
X34792304Y-11601227D01*
X34798265Y-11577428D01*
X34806530Y-11554329D01*
X34817020Y-11532150D01*
X34829632Y-11511107D01*
X34844247Y-11491401D01*
X34860723Y-11473223D01*
X34878901Y-11456747D01*
X34898607Y-11442132D01*
X34919650Y-11429520D01*
X34941829Y-11419030D01*
X34964928Y-11410765D01*
X34988727Y-11404804D01*
X35012995Y-11401204D01*
X35037499Y-11400000D01*
X35862501Y-11400000D01*
X35887005Y-11401204D01*
X35887005Y-11401204D01*
G37*
D16*
X35450000Y-12100000D03*
D11*
G36*
X37762005Y-11401204D02*
G01*
X37786273Y-11404804D01*
X37810072Y-11410765D01*
X37833171Y-11419030D01*
X37855350Y-11429520D01*
X37876393Y-11442132D01*
X37896099Y-11456747D01*
X37914277Y-11473223D01*
X37930753Y-11491401D01*
X37945368Y-11511107D01*
X37957980Y-11532150D01*
X37968470Y-11554329D01*
X37976735Y-11577428D01*
X37982696Y-11601227D01*
X37986296Y-11625495D01*
X37987500Y-11649999D01*
X37987500Y-12550001D01*
X37986296Y-12574505D01*
X37982696Y-12598773D01*
X37976735Y-12622572D01*
X37968470Y-12645671D01*
X37957980Y-12667850D01*
X37945368Y-12688893D01*
X37930753Y-12708599D01*
X37914277Y-12726777D01*
X37896099Y-12743253D01*
X37876393Y-12757868D01*
X37855350Y-12770480D01*
X37833171Y-12780970D01*
X37810072Y-12789235D01*
X37786273Y-12795196D01*
X37762005Y-12798796D01*
X37737501Y-12800000D01*
X36912499Y-12800000D01*
X36887995Y-12798796D01*
X36863727Y-12795196D01*
X36839928Y-12789235D01*
X36816829Y-12780970D01*
X36794650Y-12770480D01*
X36773607Y-12757868D01*
X36753901Y-12743253D01*
X36735723Y-12726777D01*
X36719247Y-12708599D01*
X36704632Y-12688893D01*
X36692020Y-12667850D01*
X36681530Y-12645671D01*
X36673265Y-12622572D01*
X36667304Y-12598773D01*
X36663704Y-12574505D01*
X36662500Y-12550001D01*
X36662500Y-11649999D01*
X36663704Y-11625495D01*
X36667304Y-11601227D01*
X36673265Y-11577428D01*
X36681530Y-11554329D01*
X36692020Y-11532150D01*
X36704632Y-11511107D01*
X36719247Y-11491401D01*
X36735723Y-11473223D01*
X36753901Y-11456747D01*
X36773607Y-11442132D01*
X36794650Y-11429520D01*
X36816829Y-11419030D01*
X36839928Y-11410765D01*
X36863727Y-11404804D01*
X36887995Y-11401204D01*
X36912499Y-11400000D01*
X37737501Y-11400000D01*
X37762005Y-11401204D01*
X37762005Y-11401204D01*
G37*
D16*
X37325000Y-12100000D03*
D17*
X46560000Y-12160000D03*
X46560000Y-13840000D03*
D18*
X46560000Y-10090000D03*
X46560000Y-15910000D03*
D19*
X44260000Y-10537500D03*
X44260000Y-15462500D03*
D20*
X43900000Y-11700000D03*
X43900000Y-12350000D03*
X43900000Y-13000000D03*
X43900000Y-13650000D03*
X43900000Y-14300000D03*
D13*
X37005000Y-18750000D03*
X37005000Y-22250000D03*
M02*
